[
  {
    "name": "Node JS Course Store",
    "picture": "https://cdn.jsdelivr.net/gh/jashezan/public-resources/Images/Web-Projects/optimized-images/node-js-course-store-720x.jpg",
    "demo": "https://github.com/jashezan/Course-Store-with-NodeJS",
    "code": "https://github.com/jashezan/Course-Store-with-NodeJS"
  },
  {
    "name": "Foodies Website",
    "picture": "https://cdn.jsdelivr.net/gh/jashezan/public-resources/Images/Web-Projects/optimized-images/foodies-website-720x.jpg",
    "demo": "https://icbatch4-shezan-a4.netlify.app/",
    "code": "https://icbatch4-shezan-a4.netlify.app/"
  },
  {
    "name": "React JS Todo App",
    "picture": "https://cdn.jsdelivr.net/gh/jashezan/public-resources/Images/Web-Projects/optimized-images/react-js-todo-app-720x.jpg",
    "demo": "https://jashezan.github.io/React-JS-Todo-App/",
    "code": "https://github.com/jashezan/React-JS-Todo-App"
  },
  {
    "name": "Breaking Bad Cast",
    "picture": "https://cdn.jsdelivr.net/gh/jashezan/public-resources/Images/Web-Projects/optimized-images/breaking-bad-cast-720x.jpg",
    "demo": "https://jashezan.github.io/Breaking-Bad-Cast/",
    "code": "https://github.com/jashezan/Breaking-Bad-Cast"
  },
  {
    "name": "Flex Panel",
    "picture": "https://cdn.jsdelivr.net/gh/jashezan/public-resources/Images/Web-Projects/optimized-images/flex-panel-720x.jpg",
    "demo": "https://jashezan.github.io/Web-Projects/flex-panel-js30/",
    "code": "https://github.com/jashezan/Web-Projects/tree/main/flex-panel-js30"
  },
  {
    "name": "J.A. Shezan's Old Portfolio",
    "picture": "https://cdn.jsdelivr.net/gh/jashezan/public-resources/Images/Web-Projects/optimized-images/jashezan-html-css-old-portfolio-720x.jpg",
    "demo": "https://jashezan.github.io/Web-Projects/jashezan-html-css-old-portfolio",
    "code": "https://github.com/jashezan/Web-Projects/tree/main/jashezan-html-css-old-portfolio"
  }
]
